\select@language {russian}
\contentsline {chapter}{\IeC {\CYRV }\IeC {\cyrv }\IeC {\cyre }\IeC {\cyrd }\IeC {\cyre }\IeC {\cyrn }\IeC {\cyri }\IeC {\cyre }}{2}{chapter*.2}
\contentsline {chapter}{\IeC {\CYRA }\IeC {\cyrn }\IeC {\cyra }\IeC {\cyrl }\IeC {\cyri }\IeC {\cyrt }\IeC {\cyri }\IeC {\cyrch }\IeC {\cyre }\IeC {\cyrs }\IeC {\cyrk }\IeC {\cyri }\IeC {\cyrishrt } \IeC {\cyrr }\IeC {\cyra }\IeC {\cyrz }\IeC {\cyrd }\IeC {\cyre }\IeC {\cyrl }}{3}{chapter*.3}
\contentsline {section}{\numberline {1.1}\IeC {\CYRP }\IeC {\cyra }\IeC {\cyrr }\IeC {\cyra }\IeC {\cyrl }\IeC {\cyrl }\IeC {\cyre }\IeC {\cyrl }\IeC {\cyri }\IeC {\cyrz }\IeC {\cyrm } \IeC {\cyrn }\IeC {\cyra } \IeC {\cyrp }\IeC {\cyro }\IeC {\cyrt }\IeC {\cyro }\IeC {\cyrk }\IeC {\cyra }\IeC {\cyrh }}{4}{section.1.1}
\contentsline {section}{\numberline {1.2}\IeC {\CYRP }\IeC {\cyri }\IeC {\cyrs }\IeC {\cyrsftsn }\IeC {\cyrm }\IeC {\cyro } \IeC {\cyrs } \IeC {\cyrt }\IeC {\cyro }\IeC {\cyrch }\IeC {\cyrk }\IeC {\cyri } \IeC {\cyrz }\IeC {\cyrr }\IeC {\cyre }\IeC {\cyrn }\IeC {\cyri }\IeC {\cyrya } \IeC {\cyrk }\IeC {\cyrl }\IeC {\cyri }\IeC {\cyre }\IeC {\cyrn }\IeC {\cyrt }\IeC {\cyra }}{4}{section.1.2}
\contentsline {section}{\numberline {1.3}\IeC {\CYRO }\IeC {\cyrch }\IeC {\cyre }\IeC {\cyrr }\IeC {\cyre }\IeC {\cyrd }\IeC {\cyrsftsn } \IeC {\cyrz }\IeC {\cyra }\IeC {\cyrd }\IeC {\cyra }\IeC {\cyrn }\IeC {\cyri }\IeC {\cyrishrt } \IeC {\cyrn }\IeC {\cyra } \IeC {\cyro }\IeC {\cyrt }\IeC {\cyrp }\IeC {\cyrr }\IeC {\cyra }\IeC {\cyrv }\IeC {\cyrk }\IeC {\cyru }}{5}{section.1.3}
\contentsline {chapter}{\IeC {\CYRK }\IeC {\cyro }\IeC {\cyrn }\IeC {\cyrs }\IeC {\cyrt }\IeC {\cyrr }\IeC {\cyru }\IeC {\cyrk }\IeC {\cyrt }\IeC {\cyro }\IeC {\cyrr }\IeC {\cyrs }\IeC {\cyrk }\IeC {\cyri }\IeC {\cyrishrt } \IeC {\cyrr }\IeC {\cyra }\IeC {\cyrz }\IeC {\cyrd }\IeC {\cyre }\IeC {\cyrl }}{5}{section*.5}
\contentsline {section}{\numberline {2.1}\IeC {\CYRK }\IeC {\cyro }\IeC {\cyrn }\IeC {\cyre }\IeC {\cyrch }\IeC {\cyrn }\IeC {\cyrery }\IeC {\cyrishrt } \IeC {\cyra }\IeC {\cyrv }\IeC {\cyrt }\IeC {\cyro }\IeC {\cyrm }\IeC {\cyra }\IeC {\cyrt } \IeC {\cyrs }\IeC {\cyro }\IeC {\cyrs }\IeC {\cyrt }\IeC {\cyro }\IeC {\cyrya }\IeC {\cyrn }\IeC {\cyri }\IeC {\cyrishrt } \IeC {\cyrk }\IeC {\cyrl }\IeC {\cyri }\IeC {\cyre }\IeC {\cyrn }\IeC {\cyrt }\IeC {\cyra }}{7}{section.2.1}
\contentsline {section}{\numberline {2.2}\IeC {\CYRK }\IeC {\cyro }\IeC {\cyrn }\IeC {\cyre }\IeC {\cyrch }\IeC {\cyrn }\IeC {\cyrery }\IeC {\cyrishrt } \IeC {\cyra }\IeC {\cyrv }\IeC {\cyrt }\IeC {\cyro }\IeC {\cyrm }\IeC {\cyra }\IeC {\cyrt } \IeC {\cyrs }\IeC {\cyro }\IeC {\cyrs }\IeC {\cyrt }\IeC {\cyro }\IeC {\cyrya }\IeC {\cyrn }\IeC {\cyri }\IeC {\cyrishrt } \IeC {\cyrp }\IeC {\cyri }\IeC {\cyrs }\IeC {\cyrsftsn }\IeC {\cyrm }\IeC {\cyra }}{7}{section.2.2}
\contentsline {section}{\numberline {2.3}\IeC {\CYRS }\IeC {\cyri }\IeC {\cyrn }\IeC {\cyrt }\IeC {\cyra }\IeC {\cyrk }\IeC {\cyrs }\IeC {\cyri }\IeC {\cyrs } \IeC {\cyro }\IeC {\cyrt }\IeC {\cyrv }\IeC {\cyre }\IeC {\cyrt }\IeC {\cyro }\IeC {\cyrv } \IeC {\cyro }\IeC {\cyrt } \IeC {\cyrs }\IeC {\cyre }\IeC {\cyrr }\IeC {\cyrv }\IeC {\cyre }\IeC {\cyrr }\IeC {\cyra }}{7}{section.2.3}
\contentsline {section}{\numberline {2.4}\IeC {\CYRS }\IeC {\cyrt }\IeC {\cyrr }\IeC {\cyru }\IeC {\cyrk }\IeC {\cyrt }\IeC {\cyru }\IeC {\cyrr }\IeC {\cyrery } \IeC {\cyrd }\IeC {\cyra }\IeC {\cyrn }\IeC {\cyrn }\IeC {\cyrery }\IeC {\cyrh }}{7}{section.2.4}
\contentsline {section}{\numberline {2.5}\IeC {\CYRV }\IeC {\cyrh }\IeC {\cyro }\IeC {\cyrd }\IeC {\cyrn }\IeC {\cyrery }\IeC {\cyre } \IeC {\cyrp }\IeC {\cyra }\IeC {\cyrr }\IeC {\cyra }\IeC {\cyrm }\IeC {\cyre }\IeC {\cyrt }\IeC {\cyrr }\IeC {\cyrery } \IeC {\cyrk }\IeC {\cyrl }\IeC {\cyri }\IeC {\cyre }\IeC {\cyrn }\IeC {\cyrt }\IeC {\cyru }}{7}{section.2.5}
\contentsline {section}{\numberline {2.6}\IeC {\CYRO }\IeC {\cyrb }\IeC {\cyrr }\IeC {\cyra }\IeC {\cyrb }\IeC {\cyro }\IeC {\cyrt }\IeC {\cyrk }\IeC {\cyra } \IeC {\cyrs }\IeC {\cyro }\IeC {\cyre }\IeC {\cyrd }\IeC {\cyri }\IeC {\cyrn }\IeC {\cyre }\IeC {\cyrn }\IeC {\cyri }\IeC {\cyrya }}{11}{section.2.6}
\contentsline {section}{\numberline {2.7}\IeC {\CYRV }\IeC {\cyrz }\IeC {\cyra }\IeC {\cyri }\IeC {\cyrm }\IeC {\cyro }\IeC {\cyrd }\IeC {\cyre }\IeC {\cyrishrt }\IeC {\cyrs }\IeC {\cyrt }\IeC {\cyrv }\IeC {\cyri }\IeC {\cyre } \IeC {\cyrp }\IeC {\cyro }\IeC {\cyrt }\IeC {\cyro }\IeC {\cyrk }\IeC {\cyro }\IeC {\cyrv }}{11}{section.2.7}
\contentsline {chapter}{\IeC {\CYRT }\IeC {\cyre }\IeC {\cyrh }\IeC {\cyrn }\IeC {\cyro }\IeC {\cyrl }\IeC {\cyro }\IeC {\cyrg }\IeC {\cyri }\IeC {\cyrch }\IeC {\cyre }\IeC {\cyrs }\IeC {\cyrk }\IeC {\cyri }\IeC {\cyrishrt } \IeC {\cyrr }\IeC {\cyra }\IeC {\cyrz }\IeC {\cyrd }\IeC {\cyre }\IeC {\cyrl }}{13}{section*.7}
\contentsline {section}{\numberline {3.1}\IeC {\CYRS }\IeC {\cyrb }\IeC {\cyro }\IeC {\cyrr }\IeC {\cyrk }\IeC {\cyra } \IeC {\cyrp }\IeC {\cyrr }\IeC {\cyro }\IeC {\cyrg }\IeC {\cyrr }\IeC {\cyra }\IeC {\cyrm }\IeC {\cyrm }\IeC {\cyrery }}{14}{section.3.1}
\contentsline {section}{\numberline {3.2}\IeC {\CYRO }\IeC {\cyrs }\IeC {\cyrn }\IeC {\cyro }\IeC {\cyrv }\IeC {\cyrn }\IeC {\cyrery }\IeC {\cyre } \IeC {\cyrf }\IeC {\cyru }\IeC {\cyrn }\IeC {\cyrk }\IeC {\cyrc }\IeC {\cyri }\IeC {\cyri } \IeC {\cyrp }\IeC {\cyrr }\IeC {\cyro }\IeC {\cyrg }\IeC {\cyrr }\IeC {\cyra }\IeC {\cyrm }\IeC {\cyrm }\IeC {\cyrery }}{14}{section.3.2}
\contentsline {subsection}{\numberline {3.2.1}\IeC {\CYRF }\IeC {\cyra }\IeC {\cyrishrt }\IeC {\cyrl } include/mx-\/state.h}{14}{subsection.3.2.1}
\contentsline {subsubsection}{\IeC {\CYRP }\IeC {\cyro }\IeC {\cyrd }\IeC {\cyrr }\IeC {\cyro }\IeC {\cyrb }\IeC {\cyrn }\IeC {\cyro }\IeC {\cyre } \IeC {\cyro }\IeC {\cyrp }\IeC {\cyri }\IeC {\cyrs }\IeC {\cyra }\IeC {\cyrn }\IeC {\cyri }\IeC {\cyre }}{16}{section*.12}
\contentsline {subsection}{\numberline {3.2.2}\IeC {\CYRF }\IeC {\cyra }\IeC {\cyrishrt }\IeC {\cyrl } include/client-\/re.h}{16}{subsection.3.2.2}
\contentsline {subsubsection}{\IeC {\CYRP }\IeC {\cyro }\IeC {\cyrd }\IeC {\cyrr }\IeC {\cyro }\IeC {\cyrb }\IeC {\cyrn }\IeC {\cyro }\IeC {\cyre } \IeC {\cyro }\IeC {\cyrp }\IeC {\cyri }\IeC {\cyrs }\IeC {\cyra }\IeC {\cyrn }\IeC {\cyri }\IeC {\cyre }}{16}{section*.14}
\contentsline {subsubsection}{\IeC {\CYRP }\IeC {\cyre }\IeC {\cyrr }\IeC {\cyre }\IeC {\cyrch }\IeC {\cyri }\IeC {\cyrs }\IeC {\cyrl }\IeC {\cyre }\IeC {\cyrn }\IeC {\cyri }\IeC {\cyrya }}{16}{section*.15}
\contentsline {paragraph}{smtp\kern 0.05em\_\kern 0.05emresult\kern 0.05em\_\kern 0.05emcodes}{16}{section*.16}
\contentsline {subsection}{\numberline {3.2.3}\IeC {\CYRF }\IeC {\cyra }\IeC {\cyrishrt }\IeC {\cyrl } include/client-\/cmd.h}{16}{subsection.3.2.3}
\contentsline {subsubsection}{\IeC {\CYRP }\IeC {\cyro }\IeC {\cyrd }\IeC {\cyrr }\IeC {\cyro }\IeC {\cyrb }\IeC {\cyrn }\IeC {\cyro }\IeC {\cyre } \IeC {\cyro }\IeC {\cyrp }\IeC {\cyri }\IeC {\cyrs }\IeC {\cyra }\IeC {\cyrn }\IeC {\cyri }\IeC {\cyre }}{17}{section*.18}
\contentsline {subsubsection}{\IeC {\CYRF }\IeC {\cyru }\IeC {\cyrn }\IeC {\cyrk }\IeC {\cyrc }\IeC {\cyri }\IeC {\cyri }}{17}{section*.19}
\contentsline {paragraph}{client\kern 0.05em\_\kern 0.05emcmd\kern 0.05em\_\kern 0.05emdata}{17}{section*.20}
\contentsline {paragraph}{client\kern 0.05em\_\kern 0.05emcmd\kern 0.05em\_\kern 0.05emehlo}{18}{section*.21}
\contentsline {paragraph}{client\kern 0.05em\_\kern 0.05emcmd\kern 0.05em\_\kern 0.05emerror}{18}{section*.22}
\contentsline {paragraph}{client\kern 0.05em\_\kern 0.05emcmd\kern 0.05em\_\kern 0.05eminit\kern 0.05em\_\kern 0.05emdata}{19}{section*.23}
\contentsline {paragraph}{client\kern 0.05em\_\kern 0.05emcmd\kern 0.05em\_\kern 0.05eminit\kern 0.05em\_\kern 0.05emrcpt}{19}{section*.24}
\contentsline {paragraph}{client\kern 0.05em\_\kern 0.05emcmd\kern 0.05em\_\kern 0.05emmail}{20}{section*.25}
\contentsline {paragraph}{client\kern 0.05em\_\kern 0.05emcmd\kern 0.05em\_\kern 0.05emtimeout}{20}{section*.26}
\contentsline {paragraph}{client\kern 0.05em\_\kern 0.05emcmd\kern 0.05em\_\kern 0.05emyar}{20}{section*.27}
\contentsline {subsection}{\numberline {3.2.4}\IeC {\CYRF }\IeC {\cyra }\IeC {\cyrishrt }\IeC {\cyrl } include/client-\/run.h}{21}{subsection.3.2.4}
\contentsline {subsubsection}{\IeC {\CYRP }\IeC {\cyro }\IeC {\cyrd }\IeC {\cyrr }\IeC {\cyro }\IeC {\cyrb }\IeC {\cyrn }\IeC {\cyro }\IeC {\cyre } \IeC {\cyro }\IeC {\cyrp }\IeC {\cyri }\IeC {\cyrs }\IeC {\cyra }\IeC {\cyrn }\IeC {\cyri }\IeC {\cyre }}{21}{section*.31}
\contentsline {subsubsection}{\IeC {\CYRT }\IeC {\cyri }\IeC {\cyrp }\IeC {\cyrery }}{21}{section*.32}
\contentsline {paragraph}{response\kern 0.05em\_\kern 0.05emstatus}{21}{section*.33}
\contentsline {subsubsection}{\IeC {\CYRF }\IeC {\cyru }\IeC {\cyrn }\IeC {\cyrk }\IeC {\cyrc }\IeC {\cyri }\IeC {\cyri }}{21}{section*.34}
\contentsline {paragraph}{get\kern 0.05em\_\kern 0.05emresponse\kern 0.05em\_\kern 0.05emstatus}{21}{section*.35}
\contentsline {paragraph}{run}{22}{section*.36}
\contentsline {subsection}{\numberline {3.2.5}\IeC {\CYRF }\IeC {\cyra }\IeC {\cyrishrt }\IeC {\cyrl } src/client.c}{22}{subsection.3.2.5}
\contentsline {subsubsection}{\IeC {\CYRP }\IeC {\cyro }\IeC {\cyrd }\IeC {\cyrr }\IeC {\cyro }\IeC {\cyrb }\IeC {\cyrn }\IeC {\cyro }\IeC {\cyre } \IeC {\cyro }\IeC {\cyrp }\IeC {\cyri }\IeC {\cyrs }\IeC {\cyra }\IeC {\cyrn }\IeC {\cyri }\IeC {\cyre }}{22}{section*.38}
\contentsline {subsubsection}{\IeC {\CYRF }\IeC {\cyru }\IeC {\cyrn }\IeC {\cyrk }\IeC {\cyrc }\IeC {\cyri }\IeC {\cyri }}{22}{section*.39}
\contentsline {paragraph}{\kern 0.05em\_\kern 0.05emprocess\kern 0.05em\_\kern 0.05emdomain}{22}{section*.40}
\contentsline {paragraph}{main}{22}{section*.41}
\contentsline {section}{\numberline {3.3}\IeC {\CYRG }\IeC {\cyrr }\IeC {\cyra }\IeC {\cyrf }\IeC {\cyrery } \IeC {\cyrv }\IeC {\cyrery }\IeC {\cyrz }\IeC {\cyro }\IeC {\cyrv }\IeC {\cyra } \IeC {\cyrf }\IeC {\cyru }\IeC {\cyrn }\IeC {\cyrk }\IeC {\cyrc }\IeC {\cyri }\IeC {\cyrishrt }}{23}{section.3.3}
\contentsline {section}{\numberline {3.4}\IeC {\CYRT }\IeC {\cyre }\IeC {\cyrs }\IeC {\cyrt }\IeC {\cyri }\IeC {\cyrr }\IeC {\cyro }\IeC {\cyrv }\IeC {\cyra }\IeC {\cyrn }\IeC {\cyri }\IeC {\cyre }}{23}{section.3.4}
\contentsline {chapter}{\IeC {\CYRV }\IeC {\cyrery }\IeC {\cyrv }\IeC {\cyro }\IeC {\cyrd }\IeC {\cyrery }}{23}{section*.42}
\contentsline {chapter}{\IeC {\CYRI }\IeC {\cyrs }\IeC {\cyrp }\IeC {\cyro }\IeC {\cyrl }\IeC {\cyrsftsn }\IeC {\cyrz }\IeC {\cyro }\IeC {\cyrv }\IeC {\cyra }\IeC {\cyrn }\IeC {\cyrn }\IeC {\cyra }\IeC {\cyrya } \IeC {\cyrl }\IeC {\cyri }\IeC {\cyrt }\IeC {\cyre }\IeC {\cyrr }\IeC {\cyra }\IeC {\cyrt }\IeC {\cyru }\IeC {\cyrr }\IeC {\cyra }}{26}{chapter*.43}
