\relax 
\providecommand\hyper@newdestlabel[2]{}
\catcode `"\active 
\providecommand\HyperFirstAtBeginDocument{\AtBeginDocument}
\HyperFirstAtBeginDocument{\ifx\hyper@anchor\@undefined
\global\let\oldcontentsline\contentsline
\gdef\contentsline#1#2#3#4{\oldcontentsline{#1}{#2}{#3}}
\global\let\oldnewlabel\newlabel
\gdef\newlabel#1#2{\newlabelxx{#1}#2}
\gdef\newlabelxx#1#2#3#4#5#6{\oldnewlabel{#1}{{#2}{#3}}}
\AtEndDocument{\ifx\hyper@anchor\@undefined
\let\contentsline\oldcontentsline
\let\newlabel\oldnewlabel
\fi}
\fi}
\global\let\hyper@last\relax 
\gdef\HyperFirstAtBeginDocument#1{#1}
\providecommand\HyField@AuxAddToFields[1]{}
\providecommand\HyField@AuxAddToCoFields[2]{}
\select@language{russian}
\@writefile{toc}{\select@language{russian}}
\@writefile{lof}{\select@language{russian}}
\@writefile{lot}{\select@language{russian}}
\@writefile{toc}{\contentsline {chapter}{\IeC {\CYRV }\IeC {\cyrv }\IeC {\cyre }\IeC {\cyrd }\IeC {\cyre }\IeC {\cyrn }\IeC {\cyri }\IeC {\cyre }}{2}{chapter*.2}}
\@writefile{toc}{\contentsline {chapter}{\IeC {\CYRA }\IeC {\cyrn }\IeC {\cyra }\IeC {\cyrl }\IeC {\cyri }\IeC {\cyrt }\IeC {\cyri }\IeC {\cyrch }\IeC {\cyre }\IeC {\cyrs }\IeC {\cyrk }\IeC {\cyri }\IeC {\cyrishrt } \IeC {\cyrr }\IeC {\cyra }\IeC {\cyrz }\IeC {\cyrd }\IeC {\cyre }\IeC {\cyrl }}{3}{chapter*.3}}
\@writefile{toc}{\contentsline {section}{\numberline {1.1}\IeC {\CYRP }\IeC {\cyra }\IeC {\cyrr }\IeC {\cyra }\IeC {\cyrl }\IeC {\cyrl }\IeC {\cyre }\IeC {\cyrl }\IeC {\cyri }\IeC {\cyrz }\IeC {\cyrm } \IeC {\cyrn }\IeC {\cyra } \IeC {\cyrp }\IeC {\cyro }\IeC {\cyrt }\IeC {\cyro }\IeC {\cyrk }\IeC {\cyra }\IeC {\cyrh }}{4}{section.1.1}}
\@writefile{toc}{\contentsline {section}{\numberline {1.2}\IeC {\CYRP }\IeC {\cyri }\IeC {\cyrs }\IeC {\cyrsftsn }\IeC {\cyrm }\IeC {\cyro } \IeC {\cyrs } \IeC {\cyrt }\IeC {\cyro }\IeC {\cyrch }\IeC {\cyrk }\IeC {\cyri } \IeC {\cyrz }\IeC {\cyrr }\IeC {\cyre }\IeC {\cyrn }\IeC {\cyri }\IeC {\cyrya } \IeC {\cyrk }\IeC {\cyrl }\IeC {\cyri }\IeC {\cyre }\IeC {\cyrn }\IeC {\cyrt }\IeC {\cyra }}{4}{section.1.2}}
\@writefile{toc}{\contentsline {section}{\numberline {1.3}\IeC {\CYRO }\IeC {\cyrch }\IeC {\cyre }\IeC {\cyrr }\IeC {\cyre }\IeC {\cyrd }\IeC {\cyrsftsn } \IeC {\cyrz }\IeC {\cyra }\IeC {\cyrd }\IeC {\cyra }\IeC {\cyrn }\IeC {\cyri }\IeC {\cyrishrt } \IeC {\cyrn }\IeC {\cyra } \IeC {\cyro }\IeC {\cyrt }\IeC {\cyrp }\IeC {\cyrr }\IeC {\cyra }\IeC {\cyrv }\IeC {\cyrk }\IeC {\cyru }}{5}{section.1.3}}
\@writefile{toc}{\contentsline {chapter}{\IeC {\CYRK }\IeC {\cyro }\IeC {\cyrn }\IeC {\cyrs }\IeC {\cyrt }\IeC {\cyrr }\IeC {\cyru }\IeC {\cyrk }\IeC {\cyrt }\IeC {\cyro }\IeC {\cyrr }\IeC {\cyrs }\IeC {\cyrk }\IeC {\cyri }\IeC {\cyrishrt } \IeC {\cyrr }\IeC {\cyra }\IeC {\cyrz }\IeC {\cyrd }\IeC {\cyre }\IeC {\cyrl }}{5}{section*.5}}
\@writefile{lof}{\contentsline {figure}{\numberline {1.1}{\ignorespaces \IeC {\CYRP }\IeC {\cyro }\IeC {\cyrl }\IeC {\cyru }\IeC {\cyrch }\IeC {\cyre }\IeC {\cyrn }\IeC {\cyri }\IeC {\cyre } \IeC {\cyrz }\IeC {\cyra }\IeC {\cyrd }\IeC {\cyra }\IeC {\cyrn }\IeC {\cyri }\IeC {\cyrya } \IeC {\cyrv } \IeC {\cyrb }\IeC {\cyrl }\IeC {\cyro }\IeC {\cyrk }\IeC {\cyri }\IeC {\cyrr }\IeC {\cyru }\IeC {\cyryu }\IeC {\cyrshch }\IeC {\cyre }\IeC {\cyrishrt } \IeC {\cyro }\IeC {\cyrch }\IeC {\cyre }\IeC {\cyrr }\IeC {\cyre }\IeC {\cyrd }\IeC {\cyri }}}{6}{figure.1.1}}
\newlabel{fig:get_task}{{1.1}{6}{Получение задания в блокирующей очереди}{figure.1.1}{}}
\@writefile{toc}{\contentsline {section}{\numberline {2.1}\IeC {\CYRK }\IeC {\cyro }\IeC {\cyrn }\IeC {\cyre }\IeC {\cyrch }\IeC {\cyrn }\IeC {\cyrery }\IeC {\cyrishrt } \IeC {\cyra }\IeC {\cyrv }\IeC {\cyrt }\IeC {\cyro }\IeC {\cyrm }\IeC {\cyra }\IeC {\cyrt } \IeC {\cyrs }\IeC {\cyro }\IeC {\cyrs }\IeC {\cyrt }\IeC {\cyro }\IeC {\cyrya }\IeC {\cyrn }\IeC {\cyri }\IeC {\cyrishrt } \IeC {\cyrk }\IeC {\cyrl }\IeC {\cyri }\IeC {\cyre }\IeC {\cyrn }\IeC {\cyrt }\IeC {\cyra }}{7}{section.2.1}}
\@writefile{toc}{\contentsline {section}{\numberline {2.2}\IeC {\CYRK }\IeC {\cyro }\IeC {\cyrn }\IeC {\cyre }\IeC {\cyrch }\IeC {\cyrn }\IeC {\cyrery }\IeC {\cyrishrt } \IeC {\cyra }\IeC {\cyrv }\IeC {\cyrt }\IeC {\cyro }\IeC {\cyrm }\IeC {\cyra }\IeC {\cyrt } \IeC {\cyrs }\IeC {\cyro }\IeC {\cyrs }\IeC {\cyrt }\IeC {\cyro }\IeC {\cyrya }\IeC {\cyrn }\IeC {\cyri }\IeC {\cyrishrt } \IeC {\cyrp }\IeC {\cyri }\IeC {\cyrs }\IeC {\cyrsftsn }\IeC {\cyrm }\IeC {\cyra }}{7}{section.2.2}}
\@writefile{toc}{\contentsline {section}{\numberline {2.3}\IeC {\CYRS }\IeC {\cyri }\IeC {\cyrn }\IeC {\cyrt }\IeC {\cyra }\IeC {\cyrk }\IeC {\cyrs }\IeC {\cyri }\IeC {\cyrs } \IeC {\cyro }\IeC {\cyrt }\IeC {\cyrv }\IeC {\cyre }\IeC {\cyrt }\IeC {\cyro }\IeC {\cyrv } \IeC {\cyro }\IeC {\cyrt } \IeC {\cyrs }\IeC {\cyre }\IeC {\cyrr }\IeC {\cyrv }\IeC {\cyre }\IeC {\cyrr }\IeC {\cyra }}{7}{section.2.3}}
\@writefile{toc}{\contentsline {section}{\numberline {2.4}\IeC {\CYRS }\IeC {\cyrt }\IeC {\cyrr }\IeC {\cyru }\IeC {\cyrk }\IeC {\cyrt }\IeC {\cyru }\IeC {\cyrr }\IeC {\cyrery } \IeC {\cyrd }\IeC {\cyra }\IeC {\cyrn }\IeC {\cyrn }\IeC {\cyrery }\IeC {\cyrh }}{7}{section.2.4}}
\@writefile{toc}{\contentsline {section}{\numberline {2.5}\IeC {\CYRV }\IeC {\cyrh }\IeC {\cyro }\IeC {\cyrd }\IeC {\cyrn }\IeC {\cyrery }\IeC {\cyre } \IeC {\cyrp }\IeC {\cyra }\IeC {\cyrr }\IeC {\cyra }\IeC {\cyrm }\IeC {\cyre }\IeC {\cyrt }\IeC {\cyrr }\IeC {\cyrery } \IeC {\cyrk }\IeC {\cyrl }\IeC {\cyri }\IeC {\cyre }\IeC {\cyrn }\IeC {\cyrt }\IeC {\cyru }}{7}{section.2.5}}
\@writefile{lof}{\contentsline {figure}{\numberline {2.1}{\ignorespaces \IeC {\CYRS }\IeC {\cyro }\IeC {\cyrs }\IeC {\cyrt }\IeC {\cyro }\IeC {\cyrya }\IeC {\cyrn }\IeC {\cyri }\IeC {\cyrya } \IeC {\cyrk }\IeC {\cyrl }\IeC {\cyri }\IeC {\cyre }\IeC {\cyrn }\IeC {\cyrt }\IeC {\cyra }}}{8}{figure.2.1}}
\newlabel{fig:fsm}{{2.1}{8}{Состояния клиента}{figure.2.1}{}}
\@writefile{lof}{\contentsline {figure}{\numberline {2.2}{\ignorespaces \IeC {\CYRS }\IeC {\cyro }\IeC {\cyrs }\IeC {\cyrt }\IeC {\cyro }\IeC {\cyrya }\IeC {\cyrn }\IeC {\cyri }\IeC {\cyrya } \IeC {\cyrp }\IeC {\cyri }\IeC {\cyrs }\IeC {\cyrsftsn }\IeC {\cyrm }\IeC {\cyra }}}{8}{figure.2.2}}
\newlabel{fig:fsm}{{2.2}{8}{Состояния письма}{figure.2.2}{}}
\@writefile{lol}{\contentsline {lstlisting}{../src/checkoptn.def}{10}{lstlisting.2.-1}}
\@writefile{toc}{\contentsline {section}{\numberline {2.6}\IeC {\CYRO }\IeC {\cyrb }\IeC {\cyrr }\IeC {\cyra }\IeC {\cyrb }\IeC {\cyro }\IeC {\cyrt }\IeC {\cyrk }\IeC {\cyra } \IeC {\cyrs }\IeC {\cyro }\IeC {\cyre }\IeC {\cyrd }\IeC {\cyri }\IeC {\cyrn }\IeC {\cyre }\IeC {\cyrn }\IeC {\cyri }\IeC {\cyrya }}{11}{section.2.6}}
\@writefile{toc}{\contentsline {section}{\numberline {2.7}\IeC {\CYRV }\IeC {\cyrz }\IeC {\cyra }\IeC {\cyri }\IeC {\cyrm }\IeC {\cyro }\IeC {\cyrd }\IeC {\cyre }\IeC {\cyrishrt }\IeC {\cyrs }\IeC {\cyrt }\IeC {\cyrv }\IeC {\cyri }\IeC {\cyre } \IeC {\cyrp }\IeC {\cyro }\IeC {\cyrt }\IeC {\cyro }\IeC {\cyrk }\IeC {\cyro }\IeC {\cyrv }}{11}{section.2.7}}
\@writefile{lof}{\contentsline {figure}{\numberline {2.3}{\ignorespaces \IeC {\CYRP }\IeC {\cyro }\IeC {\cyrl }\IeC {\cyru }\IeC {\cyrch }\IeC {\cyre }\IeC {\cyrn }\IeC {\cyri }\IeC {\cyre } \IeC {\cyrz }\IeC {\cyra }\IeC {\cyrd }\IeC {\cyra }\IeC {\cyrn }\IeC {\cyri }\IeC {\cyrya } \IeC {\cyrv } \IeC {\cyrb }\IeC {\cyrl }\IeC {\cyro }\IeC {\cyrk }\IeC {\cyri }\IeC {\cyrr }\IeC {\cyru }\IeC {\cyryu }\IeC {\cyrshch }\IeC {\cyre }\IeC {\cyrishrt } \IeC {\cyro }\IeC {\cyrch }\IeC {\cyre }\IeC {\cyrr }\IeC {\cyre }\IeC {\cyrd }\IeC {\cyri }}}{12}{figure.2.3}}
\newlabel{fig:get_task2}{{2.3}{12}{Получение задания в блокирующей очереди}{figure.2.3}{}}
\@writefile{toc}{\contentsline {chapter}{\IeC {\CYRT }\IeC {\cyre }\IeC {\cyrh }\IeC {\cyrn }\IeC {\cyro }\IeC {\cyrl }\IeC {\cyro }\IeC {\cyrg }\IeC {\cyri }\IeC {\cyrch }\IeC {\cyre }\IeC {\cyrs }\IeC {\cyrk }\IeC {\cyri }\IeC {\cyrishrt } \IeC {\cyrr }\IeC {\cyra }\IeC {\cyrz }\IeC {\cyrd }\IeC {\cyre }\IeC {\cyrl }}{13}{section*.7}}
\@writefile{toc}{\contentsline {section}{\numberline {3.1}\IeC {\CYRS }\IeC {\cyrb }\IeC {\cyro }\IeC {\cyrr }\IeC {\cyrk }\IeC {\cyra } \IeC {\cyrp }\IeC {\cyrr }\IeC {\cyro }\IeC {\cyrg }\IeC {\cyrr }\IeC {\cyra }\IeC {\cyrm }\IeC {\cyrm }\IeC {\cyrery }}{14}{section.3.1}}
\@writefile{toc}{\contentsline {section}{\numberline {3.2}\IeC {\CYRO }\IeC {\cyrs }\IeC {\cyrn }\IeC {\cyro }\IeC {\cyrv }\IeC {\cyrn }\IeC {\cyrery }\IeC {\cyre } \IeC {\cyrf }\IeC {\cyru }\IeC {\cyrn }\IeC {\cyrk }\IeC {\cyrc }\IeC {\cyri }\IeC {\cyri } \IeC {\cyrp }\IeC {\cyrr }\IeC {\cyro }\IeC {\cyrg }\IeC {\cyrr }\IeC {\cyra }\IeC {\cyrm }\IeC {\cyrm }\IeC {\cyrery }}{14}{section.3.2}}
\@writefile{toc}{\contentsline {subsection}{\numberline {3.2.1}\IeC {\CYRF }\IeC {\cyra }\IeC {\cyrishrt }\IeC {\cyrl } include/mx-\/state.h}{14}{subsection.3.2.1}}
\newlabel{mx-state_8h}{{3.2.1}{14}{Файл include/mx-\/state.h}{subsection.3.2.1}{}}
\newlabel{mx-state_8h_a215841b46b6aef69568bdada038abdcd}{{3.2.1}{14}{Определения типов}{section*.10}{}}
\newlabel{mx-state_8h_a25e93b8805717339cf0455aefc987408}{{3.2.1}{14}{Функции}{section*.11}{}}
\newlabel{mx-state_8h_ac97a1733696f8ef354d10985ad325265}{{3.2.1}{14}{Функции}{section*.11}{}}
\@writefile{lof}{\contentsline {figure}{\numberline {3.1}{\ignorespaces \IeC {\CYRS }\IeC {\cyrb }\IeC {\cyro }\IeC {\cyrr }\IeC {\cyrk }\IeC {\cyra } \IeC {\cyrp }\IeC {\cyrr }\IeC {\cyro }\IeC {\cyrg }\IeC {\cyrr }\IeC {\cyra }\IeC {\cyrm }\IeC {\cyrm }\IeC {\cyrery }}}{15}{figure.3.1}}
\newlabel{fig:make}{{3.1}{15}{Сборка программы}{figure.3.1}{}}
\@writefile{toc}{\contentsline {subsubsection}{\IeC {\CYRP }\IeC {\cyro }\IeC {\cyrd }\IeC {\cyrr }\IeC {\cyro }\IeC {\cyrb }\IeC {\cyrn }\IeC {\cyro }\IeC {\cyre } \IeC {\cyro }\IeC {\cyrp }\IeC {\cyri }\IeC {\cyrs }\IeC {\cyra }\IeC {\cyrn }\IeC {\cyri }\IeC {\cyre }}{16}{section*.12}}
\@writefile{toc}{\contentsline {subsection}{\numberline {3.2.2}\IeC {\CYRF }\IeC {\cyra }\IeC {\cyrishrt }\IeC {\cyrl } include/client-\/re.h}{16}{subsection.3.2.2}}
\newlabel{client-re_8h}{{3.2.2}{16}{Файл include/client-\/re.h}{subsection.3.2.2}{}}
\@writefile{toc}{\contentsline {subsubsection}{\IeC {\CYRP }\IeC {\cyro }\IeC {\cyrd }\IeC {\cyrr }\IeC {\cyro }\IeC {\cyrb }\IeC {\cyrn }\IeC {\cyro }\IeC {\cyre } \IeC {\cyro }\IeC {\cyrp }\IeC {\cyri }\IeC {\cyrs }\IeC {\cyra }\IeC {\cyrn }\IeC {\cyri }\IeC {\cyre }}{16}{section*.14}}
\@writefile{toc}{\contentsline {subsubsection}{\IeC {\CYRP }\IeC {\cyre }\IeC {\cyrr }\IeC {\cyre }\IeC {\cyrch }\IeC {\cyri }\IeC {\cyrs }\IeC {\cyrl }\IeC {\cyre }\IeC {\cyrn }\IeC {\cyri }\IeC {\cyrya }}{16}{section*.15}}
\newlabel{client-re_8h_a856549f43a31be899064a483bcae165d}{{3.2.2}{16}{smtp\+\_\+result\+\_\+codes}{section*.16}{}}
\@writefile{toc}{\contentsline {paragraph}{smtp\kern 0.05em\_\kern 0.05emresult\kern 0.05em\_\kern 0.05emcodes}{16}{section*.16}}
\newlabel{client-re_8h_a856549f43a31be899064a483bcae165da6a538f6311ed179ca8e65637ba0f678c}{{3.2.2}{16}{\em \hypertarget {client-re_8h_a856549f43a31be899064a483bcae165da6a538f6311ed179ca8e65637ba0f678c}{r211}}{section*.16}{}}
\newlabel{client-re_8h_a856549f43a31be899064a483bcae165da1ea4f5e9ec90eb5544d07f2c29e67ea3}{{3.2.2}{16}{\em \hypertarget {client-re_8h_a856549f43a31be899064a483bcae165da1ea4f5e9ec90eb5544d07f2c29e67ea3}{r220}}{section*.16}{}}
\newlabel{client-re_8h_a856549f43a31be899064a483bcae165da29693ab6b4c15520e0d6466f7cc03910}{{3.2.2}{16}{\em \hypertarget {client-re_8h_a856549f43a31be899064a483bcae165da29693ab6b4c15520e0d6466f7cc03910}{r221}}{section*.16}{}}
\newlabel{client-re_8h_a856549f43a31be899064a483bcae165daefbbd67adc933258d9eaaf01508249c0}{{3.2.2}{16}{\em \hypertarget {client-re_8h_a856549f43a31be899064a483bcae165daefbbd67adc933258d9eaaf01508249c0}{r250}}{section*.16}{}}
\newlabel{client-re_8h_a856549f43a31be899064a483bcae165da71f342564c68366494fb8159d300ab18}{{3.2.2}{16}{\em \hypertarget {client-re_8h_a856549f43a31be899064a483bcae165da71f342564c68366494fb8159d300ab18}{r251}}{section*.16}{}}
\newlabel{client-re_8h_a856549f43a31be899064a483bcae165dab578dd264df90672bf07a2fa47542063}{{3.2.2}{16}{\em \hypertarget {client-re_8h_a856549f43a31be899064a483bcae165dab578dd264df90672bf07a2fa47542063}{r354}}{section*.16}{}}
\newlabel{client-re_8h_a856549f43a31be899064a483bcae165dac6e62f8bb9b9c9f5f5d49d437cc25503}{{3.2.2}{16}{\em \hypertarget {client-re_8h_a856549f43a31be899064a483bcae165dac6e62f8bb9b9c9f5f5d49d437cc25503}{rbad}}{section*.16}{}}
\newlabel{client-re_8h_a856549f43a31be899064a483bcae165dab2533ae57768deec81533a6a172b6141}{{3.2.2}{16}{\em \hypertarget {client-re_8h_a856549f43a31be899064a483bcae165dab2533ae57768deec81533a6a172b6141}{rtimeout}}{section*.16}{}}
\newlabel{client-re_8h_a856549f43a31be899064a483bcae165da4b37e6db02d2712d10f832f38e44df2c}{{3.2.2}{16}{\em \hypertarget {client-re_8h_a856549f43a31be899064a483bcae165da4b37e6db02d2712d10f832f38e44df2c}{\+\_\+smt\+\_\+re\+\_\+count}}{section*.16}{}}
\@writefile{toc}{\contentsline {subsection}{\numberline {3.2.3}\IeC {\CYRF }\IeC {\cyra }\IeC {\cyrishrt }\IeC {\cyrl } include/client-\/cmd.h}{16}{subsection.3.2.3}}
\newlabel{client-cmd_8h}{{3.2.3}{16}{Файл include/client-\/cmd.h}{subsection.3.2.3}{}}
\@writefile{toc}{\contentsline {subsubsection}{\IeC {\CYRP }\IeC {\cyro }\IeC {\cyrd }\IeC {\cyrr }\IeC {\cyro }\IeC {\cyrb }\IeC {\cyrn }\IeC {\cyro }\IeC {\cyre } \IeC {\cyro }\IeC {\cyrp }\IeC {\cyri }\IeC {\cyrs }\IeC {\cyra }\IeC {\cyrn }\IeC {\cyri }\IeC {\cyre }}{17}{section*.18}}
\@writefile{toc}{\contentsline {subsubsection}{\IeC {\CYRF }\IeC {\cyru }\IeC {\cyrn }\IeC {\cyrk }\IeC {\cyrc }\IeC {\cyri }\IeC {\cyri }}{17}{section*.19}}
\newlabel{client-cmd_8h_a462db7787568194f365782df9832af3a}{{3.2.3}{17}{client\+\_\+cmd\+\_\+data}{section*.20}{}}
\@writefile{toc}{\contentsline {paragraph}{client\kern 0.05em\_\kern 0.05emcmd\kern 0.05em\_\kern 0.05emdata}{17}{section*.20}}
\newlabel{client-cmd_8h_ac959f950f67450cc939722156b01f146}{{3.2.3}{18}{client\+\_\+cmd\+\_\+ehlo}{section*.21}{}}
\@writefile{toc}{\contentsline {paragraph}{client\kern 0.05em\_\kern 0.05emcmd\kern 0.05em\_\kern 0.05emehlo}{18}{section*.21}}
\newlabel{client-cmd_8h_a7461ff80dd0a6d91d15bdc3a02644b4f}{{3.2.3}{18}{client\+\_\+cmd\+\_\+error}{section*.22}{}}
\@writefile{toc}{\contentsline {paragraph}{client\kern 0.05em\_\kern 0.05emcmd\kern 0.05em\_\kern 0.05emerror}{18}{section*.22}}
\newlabel{client-cmd_8h_a5179ca067a9ddc7632adab78c31f9c08}{{3.2.3}{19}{client\+\_\+cmd\+\_\+init\+\_\+data}{section*.23}{}}
\@writefile{toc}{\contentsline {paragraph}{client\kern 0.05em\_\kern 0.05emcmd\kern 0.05em\_\kern 0.05eminit\kern 0.05em\_\kern 0.05emdata}{19}{section*.23}}
\newlabel{client-cmd_8h_a53ecb0cc5760374baec41a01454fed31}{{3.2.3}{19}{client\+\_\+cmd\+\_\+init\+\_\+rcpt}{section*.24}{}}
\@writefile{toc}{\contentsline {paragraph}{client\kern 0.05em\_\kern 0.05emcmd\kern 0.05em\_\kern 0.05eminit\kern 0.05em\_\kern 0.05emrcpt}{19}{section*.24}}
\newlabel{client-cmd_8h_a798e69d19df8d3f85d8a874b0b1b6077}{{3.2.3}{19}{client\+\_\+cmd\+\_\+mail}{section*.25}{}}
\@writefile{toc}{\contentsline {paragraph}{client\kern 0.05em\_\kern 0.05emcmd\kern 0.05em\_\kern 0.05emmail}{20}{section*.25}}
\newlabel{client-cmd_8h_afc16c055dee973d9eda085708be8e697}{{3.2.3}{20}{client\+\_\+cmd\+\_\+timeout}{section*.26}{}}
\@writefile{toc}{\contentsline {paragraph}{client\kern 0.05em\_\kern 0.05emcmd\kern 0.05em\_\kern 0.05emtimeout}{20}{section*.26}}
\newlabel{client-cmd_8h_ae62dd9b67644311ed7ab8dc4dae7310c}{{3.2.3}{20}{client\+\_\+cmd\+\_\+yar}{section*.27}{}}
\@writefile{toc}{\contentsline {paragraph}{client\kern 0.05em\_\kern 0.05emcmd\kern 0.05em\_\kern 0.05emyar}{20}{section*.27}}
\@writefile{toc}{\contentsline {subsection}{\numberline {3.2.4}\IeC {\CYRF }\IeC {\cyra }\IeC {\cyrishrt }\IeC {\cyrl } include/client-\/run.h}{21}{subsection.3.2.4}}
\newlabel{client-run_8h}{{3.2.4}{21}{Файл include/client-\/run.h}{subsection.3.2.4}{}}
\@writefile{toc}{\contentsline {subsubsection}{\IeC {\CYRP }\IeC {\cyro }\IeC {\cyrd }\IeC {\cyrr }\IeC {\cyro }\IeC {\cyrb }\IeC {\cyrn }\IeC {\cyro }\IeC {\cyre } \IeC {\cyro }\IeC {\cyrp }\IeC {\cyri }\IeC {\cyrs }\IeC {\cyra }\IeC {\cyrn }\IeC {\cyri }\IeC {\cyre }}{21}{section*.31}}
\@writefile{toc}{\contentsline {subsubsection}{\IeC {\CYRT }\IeC {\cyri }\IeC {\cyrp }\IeC {\cyrery }}{21}{section*.32}}
\newlabel{client-run_8h_ac275efb20f38fb5a85dbafb388eb30f9}{{3.2.4}{21}{response\+\_\+status}{section*.33}{}}
\@writefile{toc}{\contentsline {paragraph}{response\kern 0.05em\_\kern 0.05emstatus}{21}{section*.33}}
\@writefile{toc}{\contentsline {subsubsection}{\IeC {\CYRF }\IeC {\cyru }\IeC {\cyrn }\IeC {\cyrk }\IeC {\cyrc }\IeC {\cyri }\IeC {\cyri }}{21}{section*.34}}
\newlabel{client-run_8h_a6475f85a567dfe579680f1d66b973458}{{3.2.4}{21}{get\+\_\+response\+\_\+status}{section*.35}{}}
\@writefile{toc}{\contentsline {paragraph}{get\kern 0.05em\_\kern 0.05emresponse\kern 0.05em\_\kern 0.05emstatus}{21}{section*.35}}
\newlabel{client-run_8h_aeef438e6168278915b6f168a5d4f3dec}{{3.2.4}{22}{run}{section*.36}{}}
\@writefile{toc}{\contentsline {paragraph}{run}{22}{section*.36}}
\@writefile{toc}{\contentsline {subsection}{\numberline {3.2.5}\IeC {\CYRF }\IeC {\cyra }\IeC {\cyrishrt }\IeC {\cyrl } src/client.c}{22}{subsection.3.2.5}}
\newlabel{client_8c}{{3.2.5}{22}{Файл src/client.c}{subsection.3.2.5}{}}
\@writefile{toc}{\contentsline {subsubsection}{\IeC {\CYRP }\IeC {\cyro }\IeC {\cyrd }\IeC {\cyrr }\IeC {\cyro }\IeC {\cyrb }\IeC {\cyrn }\IeC {\cyro }\IeC {\cyre } \IeC {\cyro }\IeC {\cyrp }\IeC {\cyri }\IeC {\cyrs }\IeC {\cyra }\IeC {\cyrn }\IeC {\cyri }\IeC {\cyre }}{22}{section*.38}}
\@writefile{toc}{\contentsline {subsubsection}{\IeC {\CYRF }\IeC {\cyru }\IeC {\cyrn }\IeC {\cyrk }\IeC {\cyrc }\IeC {\cyri }\IeC {\cyri }}{22}{section*.39}}
\newlabel{client_8c_a21a248b0d1c4159b19a3844a96c45d21}{{3.2.5}{22}{\+\_\+process\+\_\+domain}{section*.40}{}}
\@writefile{toc}{\contentsline {paragraph}{\kern 0.05em\_\kern 0.05emprocess\kern 0.05em\_\kern 0.05emdomain}{22}{section*.40}}
\newlabel{client_8c_a0ddf1224851353fc92bfbff6f499fa97}{{3.2.5}{22}{main}{section*.41}{}}
\@writefile{toc}{\contentsline {paragraph}{main}{22}{section*.41}}
\@writefile{toc}{\contentsline {section}{\numberline {3.3}\IeC {\CYRG }\IeC {\cyrr }\IeC {\cyra }\IeC {\cyrf }\IeC {\cyrery } \IeC {\cyrv }\IeC {\cyrery }\IeC {\cyrz }\IeC {\cyro }\IeC {\cyrv }\IeC {\cyra } \IeC {\cyrf }\IeC {\cyru }\IeC {\cyrn }\IeC {\cyrk }\IeC {\cyrc }\IeC {\cyri }\IeC {\cyrishrt }}{23}{section.3.3}}
\@writefile{toc}{\contentsline {section}{\numberline {3.4}\IeC {\CYRT }\IeC {\cyre }\IeC {\cyrs }\IeC {\cyrt }\IeC {\cyri }\IeC {\cyrr }\IeC {\cyro }\IeC {\cyrv }\IeC {\cyra }\IeC {\cyrn }\IeC {\cyri }\IeC {\cyre }}{23}{section.3.4}}
\@writefile{toc}{\contentsline {chapter}{\IeC {\CYRV }\IeC {\cyrery }\IeC {\cyrv }\IeC {\cyro }\IeC {\cyrd }\IeC {\cyrery }}{23}{section*.42}}
\@writefile{lof}{\contentsline {figure}{\numberline {3.2}{\ignorespaces \IeC {\CYRG }\IeC {\cyrr }\IeC {\cyra }\IeC {\cyrf } \IeC {\cyrv }\IeC {\cyrery }\IeC {\cyrz }\IeC {\cyro }\IeC {\cyrv }\IeC {\cyro }\IeC {\cyrv }, \IeC {\cyro }\IeC {\cyrs }\IeC {\cyrn }\IeC {\cyro }\IeC {\cyrv }\IeC {\cyrn }\IeC {\cyrery }\IeC {\cyre } \IeC {\cyrf }\IeC {\cyru }\IeC {\cyrn }\IeC {\cyrk }\IeC {\cyrc }\IeC {\cyri }\IeC {\cyri }}}{24}{figure.3.2}}
\newlabel{fig:cflow01}{{3.2}{24}{Граф вызовов, основные функции}{figure.3.2}{}}
\@writefile{lof}{\contentsline {figure}{\numberline {3.3}{\ignorespaces \IeC {\CYRG }\IeC {\cyrr }\IeC {\cyra }\IeC {\cyrf } \IeC {\cyrv }\IeC {\cyrery }\IeC {\cyrz }\IeC {\cyro }\IeC {\cyrv }\IeC {\cyro }\IeC {\cyrv }, \IeC {\cyrf }\IeC {\cyru }\IeC {\cyrn }\IeC {\cyrk }\IeC {\cyrc }\IeC {\cyri }\IeC {\cyri } \IeC {\cyro }\IeC {\cyrb }\IeC {\cyrr }\IeC {\cyra }\IeC {\cyrb }\IeC {\cyro }\IeC {\cyrt }\IeC {\cyrk }\IeC {\cyri } \IeC {\cyrk }\IeC {\cyro }\IeC {\cyrm }\IeC {\cyra }\IeC {\cyrn }\IeC {\cyrd }}}{25}{figure.3.3}}
\newlabel{fig:cflow02}{{3.3}{25}{Граф вызовов, функции обработки команд}{figure.3.3}{}}
\@writefile{toc}{\contentsline {chapter}{\IeC {\CYRI }\IeC {\cyrs }\IeC {\cyrp }\IeC {\cyro }\IeC {\cyrl }\IeC {\cyrsftsn }\IeC {\cyrz }\IeC {\cyro }\IeC {\cyrv }\IeC {\cyra }\IeC {\cyrn }\IeC {\cyrn }\IeC {\cyra }\IeC {\cyrya } \IeC {\cyrl }\IeC {\cyri }\IeC {\cyrt }\IeC {\cyre }\IeC {\cyrr }\IeC {\cyra }\IeC {\cyrt }\IeC {\cyru }\IeC {\cyrr }\IeC {\cyra }}{26}{chapter*.43}}
